{
  "elements" : [ {
    "combinationType" : "FUNCTION",
    "elementLabel" : "Workflow",
    "elementName" : "Workflow"
  } ],
  "label" : "Price List",
  "status" : "ACTIVE",
  "uniqueName" : "pricelist",
  "validAfter" : "2019-04-01"
}