{
  "aggregation" : false,
  "auxiliary" : false,
  "calculated" : false,
  "deleted" : false,
  "deployed" : true,
  "dimension" : true,
  "expression" : "customerId",
  "key" : false,
  "label" : "Customer Id",
  "numeric" : false,
  "owningFC" : "Transactions",
  "persisted" : true,
  "queryable" : true,
  "source" : "DMDS.Transactions",
  "system" : false,
  "time" : false,
  "type" : "TEXT"
}