{
  "auxiliary" : false,
  "deployed" : true,
  "fields" : [ "BusinessUnit", "Competition", "ProductClass", "ProductGroup", "ProductId", "ProductLifeCycle", "Size", "currency", "formulaName", "isDeleted", "label", "lastUpdateDate", "unitOfMeasure" ],
  "label" : "Product",
  "locked" : false,
  "persistedObjectClass" : "net.pricefx.domain.Product",
  "queryable" : true,
  "reload" : false,
  "sourceLabel" : "Product",
  "sourceTypeCode" : "P",
  "type" : "DATASOURCE",
  "uniqueName" : "Product",
  "valid" : true,
  "view" : false
}