{
  "aggregation" : false,
  "auxiliary" : false,
  "calculated" : false,
  "deleted" : false,
  "deployed" : true,
  "dimension" : false,
  "expression" : "Discount",
  "key" : false,
  "label" : "Discount",
  "measureType" : "PERUNIT",
  "numeric" : true,
  "owningFC" : "Transactions",
  "persisted" : true,
  "queryable" : true,
  "source" : "DMDS.Transactions",
  "sourceField" : "Discount",
  "system" : false,
  "time" : false,
  "type" : "MONEY"
}