{
  "calculationConfig" : {
    "feederInputParams" : [ ],
    "inputParams" : [ ],
    "mappingParams" : [ ],
    "outputElements" : [ ]
  },
  "continuous" : false,
  "distributed" : false,
  "incremental" : true,
  "isDefault" : true,
  "label" : "Calendar",
  "targetName" : "DMDS.cal",
  "type" : "DS_DEFAULTCAL",
  "valid" : true,
  "withTargetSnapshot" : false
}