{
  "aggregation" : false,
  "auxiliary" : false,
  "calculated" : false,
  "deleted" : false,
  "deployed" : true,
  "dimension" : true,
  "expression" : "ProductClass",
  "key" : false,
  "label" : "Product Class",
  "numeric" : false,
  "owningFC" : "Product",
  "persisted" : true,
  "queryable" : true,
  "source" : "DMDS.Product",
  "sourceField" : "attribute3",
  "system" : false,
  "time" : false,
  "type" : "TEXT"
}