{
  "auxiliary" : false,
  "deployed" : true,
  "fields" : [ "Cost", "Currency", "Discount", "InvoiceDate", "ListPrice", "ProductId", "Quantity", "TransactionId", "customerId", "isDeleted", "lastUpdateDate" ],
  "label" : "Transactions",
  "locked" : false,
  "queryable" : true,
  "reload" : false,
  "type" : "DATASOURCE",
  "uniqueName" : "Transactions",
  "valid" : true,
  "view" : false
}