{
  "auxiliary" : false,
  "baseCcyCode" : "EUR",
  "baseUomCode" : "EA",
  "deployed" : true,
  "fields" : [ "Cost", "Currency", "CustomerType", "Discount", "InvoiceDate", "InvoiceDateMonth", "InvoiceDateQuarter", "InvoiceDateWeek", "InvoiceDateYear", "InvoicePrice", "ListPrice", "Margin", "ProductGroup", "ProductId", "ProductLifeCycle", "Quantity", "TransactionId", "alerts", "completeResultsAvailable", "customerId", "formulaDetailedResults", "formulaResult", "isDeleted", "lastUpdateDate", "warnings" ],
  "label" : "Transactions",
  "locked" : false,
  "normalization" : "HIGH",
  "queryable" : true,
  "reload" : false,
  "source" : "DMDS.Transactions",
  "type" : "DATAMART",
  "uniqueName" : "Transactions",
  "valid" : true,
  "view" : false
}