{
  "auxiliary" : true,
  "deployed" : true,
  "fields" : [ "CcyExchangeRate", "CcyFrom", "CcyTo", "CcyValidFrom", "CcyValidTo" ],
  "label" : "Currencies",
  "locked" : true,
  "queryable" : true,
  "reload" : false,
  "type" : "DATASOURCE",
  "uniqueName" : "ccy",
  "valid" : true,
  "view" : false
}