{
  "elements" : [ {
    "allowOverride" : false,
    "combinationType" : "FUNCTION",
    "displayOptions" : 16,
    "elementLabel" : "Volume Keys",
    "elementName" : "Keys",
    "elementTimeout" : 0,
    "hideOnNull" : false,
    "hideWarnings" : false,
    "summarize" : false
  } ],
  "formulaNature" : "matrix",
  "inputDescriptors" : [ ],
  "label" : "Secondary Keys Logic (Matrix Table)",
  "status" : "ACTIVE",
  "uniqueName" : "Volume-Tier",
  "validAfter" : "2019-01-01"
}