{
  "activated" : true,
  "businessRoles" : [ ],
  "email" : "vedran.troselj@imaves.hr",
  "firstLogin" : false,
  "firstName" : "Vice",
  "groups" : [ ],
  "lastName" : "President",
  "loginName" : "VicePresident",
  "noSession" : false,
  "receiveAdminEmail" : false,
  "requireTFA" : false,
  "ssoOnly" : false,
  "workflowEmailingActivated" : true
}